{
  "page": 2,
  "total_results": 10000,
  "total_pages": 500,
  "results": [
    {
      "popularity": 129.746,
      "vote_count": 148,
      "video": false,
      "poster_path": "/g8dnzQomqJ9LqAeyHQYGTFDJl42.jpg",
      "id": 556678,
      "adult": false,
      "backdrop_path": "/5GbkL9DDRzq3A21nR7Gkv6cFGjq.jpg",
      "original_language": "en",
      "original_title": "Emma.",
      "genre_ids": [35, 18, 10749],
      "title": "엠마",
      "vote_average": 7.1,
      "overview": "영국의 한 작은 마을에 살고 있는 영리하고 예쁜 아가씨 ‘엠마 우드하우스(안야 테일러 조이)’가 마을 사람들의 중매에 나서면서 자신 역시 감정의 혼란을 겪으며 진정한 사랑이 무엇인지 깨닫는 이야기",
      "release_date": "2020-02-13"
    },
    {
      "popularity": 162.842,
      "id": 595985,
      "video": false,
      "vote_count": 119,
      "vote_average": 5.1,
      "title": "콜드 블러드 레거시",
      "release_date": "2019-05-15",
      "original_language": "fr",
      "original_title": "Cold Blood Legacy - La mémoire du sang",
      "genre_ids": [53, 28],
      "backdrop_path": "/ob8w7gQNV4uL43fCGbD6y89rpDn.jpg",
      "adult": false,
      "overview": "아무런 흔적도 증거도 없이 완벽하게 타깃을 제거하는 베테랑 킬러 ‘헨리’(장 르노). 그는 뉴욕의 한 호텔에서 대기업 총수를 암살한 뒤 깊은 설원에서 은둔생활을 이어간다. 그로부터 10개월 뒤, ‘헨리’의 앞에 의문의 여인 ‘멜로디’(사라 린드)가 나타나고, ‘헨리’는 정신을 잃은 채 쓰러진 그녀를 보살핀다. 한편, 아직 종결되지 뉴욕 암살사건의 범인을 찾아 나선 경찰들은 대기업 총수에게 숨겨진 상속인 ‘찰리 케슬러’가 있다는 사실을 알게 된다. ‘찰리 케슬러’의 행방을 추적하던 경찰들은 뜻밖의 사실과 함께 사건의 범인에 대한 실마리를 발견하게 되고 진실에 가까워질수록 ‘헨리’와 ‘멜로디’ 사이에 얽힌 충격적 과거가 드러나는데…",
      "poster_path": "/34gZ1D7lRQj2TVkLgs8OP9X2bmb.jpg"
    },
    {
      "popularity": 87.792,
      "id": 920,
      "video": false,
      "vote_count": 8997,
      "vote_average": 6.8,
      "title": "카",
      "release_date": "2006-06-08",
      "original_language": "en",
      "original_title": "Cars",
      "genre_ids": [16, 12, 35, 10751],
      "backdrop_path": "/8KeWhoMpqbzZRyHPkTtWSLWkL5L.jpg",
      "adult": false,
      "overview": "화려한 성공과 갈채를 꿈꾸는 주인공 라이트닝 맥퀸(오웬 윌슨)은 경주에서 성공하는 것만이 인생의 모든 것이라 생각하는 타오르는 청춘. 하지만 피스톤 컵 챔피온쉽에 참가하기 위해 달리던 중 경쟁과 함성과는 동떨어진 래디에이터 스프링스란 한적한 시골로 들어서게 된다. 이제는 지도에 조차 표시되지 않는 한적한 66번 국도. 조용하지만 다양한 캐릭터들이 큰 열정을 간직하고 있는 이곳에서 맥퀸은 미스터리한 과거를 지닌 닥 허드슨(폴 뉴먼)과 샐리(보니 헌트), 그리고 메이터(래리 더 케이블 가이)를 만나게 된다. 그들을 통해 인생이란 목적지가 아닌, 여행하는 과정 그 자체이며 명성과 스폰서, 트로피 뒤에 가려진 소중한 가치를 깨닫게 되는데...",
      "poster_path": "/pWFtiGLZdBTEJHrKM3AcTMuw9ue.jpg"
    },
    {
      "popularity": 64.802,
      "vote_count": 7226,
      "video": false,
      "poster_path": "/ag1HBETIXBTDk6XxhlljuT3KIjy.jpg",
      "id": 351286,
      "adult": false,
      "backdrop_path": "/3s9O5af2xWKWR5JzP2iJZpZeQQg.jpg",
      "original_language": "en",
      "original_title": "Jurassic World: Fallen Kingdom",
      "genre_ids": [28, 12, 878],
      "title": "쥬라기 월드: 폴른 킹덤",
      "vote_average": 6.5,
      "overview": "지상 최대의 테마파크 쥬라기 월드가 폐쇄된 지 3년 후. 이슬라 누블라의 활화산 시보산이 분화하려는 조짐을 보이자 조짐에 뉴스에서는 이와 더불어 공룡들의 보호에 관련된 시위나 소식들을 보도한다. 오웬(크리스 프렛)과 클레어(브라이스 달라스 하워드)는 벤자민 록우드(제임스 크롬웰)의 부탁으로 공룡들의 멸종을 막기 위해 이슬라 누블라 섬으로 떠난다. 한편 진화된 공룡들을 이용하려는 세력의 거대한 음모가 드러나고, 절대 지상에 존재해선 안될 위협적 공룡들이 마침내 세상 밖으로 등장하게 되는데...",
      "release_date": "2018-06-06"
    },
    {
      "popularity": 64.321,
      "id": 20701,
      "video": false,
      "vote_count": 173,
      "vote_average": 6.1,
      "title": "어둠속의 외침",
      "release_date": "1990-05-03",
      "original_language": "en",
      "original_title": "Tales from the Darkside: The Movie",
      "genre_ids": [53, 35, 14, 27],
      "backdrop_path": null,
      "adult": false,
      "overview": "동네를 지나가가 소년 티미는 정신이상자인 아줌마에게 끌려간다. 그녀의 부엌에서 죽을 위험에 처하지만 죽음을 피하기 위해 아라비안 나이트와 같은 천일야화를 들려주는데... 제1화 어느 대학기숙사 밸링햄이란 학생은 어느 날 미이라를 구입, 미이라를 환생시켜 부당하게 자신의 장학금을 가로챈 학생 리와 그에게 도둑누명을 씌운 수잔을 차례로 살해한다. 수잔의 오빠 앤디는 미이라의 비밀을 알아내고 미이라를 없애버리고 밸링햄을 쫓아내 안심을 하지만, 밸링햄은 이제 미이라가 아닌 죽은 자들을 불러일으켜 조정하는 힘을 가진다. 제2화 거대재벌인 드로간 제약회사의 사장 드로간씨는 청부살인업자 할스톤을 고용, 그의 집안 사람 세 명을 모두 죽게 만들었다고 믿는 검은 고양이를 없애도록 부탁한다. 그는 자신의 제약회사에서 수많은 고양이를 실험용으로 쓴 죄의 대가를 받는다고 생각하며 겁에 질린다. 그러나 할스톤은 거꾸로 고양이에게 목숨을 빼앗기고, 드로간 사장 역시 결국 고양이에게 당하고 만다. 제3화 예술가인 프레스톤은 친구가 괴물한테 죽음을 당하는 걸 목격한다. 괴물은 그를 죽이지않는 대신 평생동안 괴물에 대해 한 마디도 하지 않을 것을 맹세하라고 하고 사라진다. 그날 밤, 프레스톤은 캐롤라를 만나 사랑에 빠지고 그녀의 도움으로 예술가로 크게 성공하며 아이도 둘을 낳아 10년을 행복하게 살아가던 어느 날, 맹세를 깨고 아내에게 그 괴물얘기를 털어놓는다. 그 순간 캐롤라와 두 아이는 괴물로 변신, 프레스톤을 죽이고 사라진다. 이야기를 모두 마친 소년 티미는 주머니 속의 구슬을 바닥에 던져 그를 죽이려는 정신이상 아줌마로부터 빠져나온다.",
      "poster_path": "/t5BeYGF6qhq1oSvrBwoy9Nbb0rE.jpg"
    },
    {
      "popularity": 96.14,
      "vote_count": 1639,
      "video": false,
      "poster_path": "/sOfUbzu6OUL5cscGODPdpHn9C1g.jpg",
      "id": 637920,
      "adult": false,
      "backdrop_path": "/vpCjd4Xt6SCib0BXppOCDN1JSiy.jpg",
      "original_language": "tr",
      "original_title": "7. Koğuştaki Mucize",
      "genre_ids": [18],
      "title": "7번방의 기적",
      "vote_average": 8.4,
      "overview": "교도소 7번 방. 지능이 예닐곱 살 수준인 남자가 이곳에 들어왔다. 아동 살해 누명을 쓰고 사형을 기다리지만 그에겐 아끼는 딸이 있다. 감방 동료들이 준비한 특별 선물로 딸과 재회한 남자. 하지만 계속 함께하려면 무죄를 밝혀야 한다.",
      "release_date": "2019-10-10"
    },
    {
      "popularity": 62.511,
      "id": 10865,
      "video": false,
      "vote_count": 2990,
      "vote_average": 6.9,
      "title": "아틀란티스",
      "release_date": "2001-06-02",
      "original_language": "en",
      "original_title": "Atlantis: The Lost Empire",
      "genre_ids": [16, 10751, 12, 878],
      "backdrop_path": "/fYr0fqT9NImOuaN1QgnDHgGh4Ci.jpg",
      "adult": false,
      "overview": "젊은 지도 제작자 마일로는 전설의 섬 아틀란티스에 가보는 것이 꿈이다. 바닷속 어딘가에 아틀란티스가 실재한다고 말할 때마다 바보 취급을 받던 마일로에게 한 괴짜 갑부가 아틀란티스를 찾는 중요한 단서인 고대 문서를 전해준다. 갑부의 후원으로 탐험대를 꾸린 마일로는 요란한 모험 끝에 신비의 땅 아틀란티스를 발견한다.",
      "poster_path": "/iKCSNKN01uGF3u5wuyL9e4SGkbf.jpg"
    },
    {
      "popularity": 89.456,
      "id": 330457,
      "video": false,
      "vote_count": 3626,
      "vote_average": 7.1,
      "title": "겨울왕국 2",
      "release_date": "2019-11-20",
      "original_language": "en",
      "original_title": "Frozen II",
      "genre_ids": [16, 10751, 12],
      "backdrop_path": "/xJWPZIYOEFIjZpBL7SVBGnzRYXp.jpg",
      "adult": false,
      "overview": "평화를 되찾은 아렌델 왕국에 새로운 위기가 찾아온다. 어느 날부턴가 의문의 목소리가 엘사를 부르고, 평화로운 아렌델 왕국을 위협한다. 트롤은 모든 것은 과거에서 시작되었음을 알려주며 엘사의 힘의 비밀과 진실을 찾아 떠나야한다고 조언한다. 위험에 빠진 아렌델 왕국을 구해야만 하는 엘사와 안나는 숨겨진 과거의 진실을 찾아 크리스토프, 올라프, 그리고 스벤과 함께 위험천만한 놀라운 모험을 떠나게 된다. 자신의 힘을 두려워했던 엘사는 이제 이 모험을 헤쳐나가기에 자신의 힘이 충분하다고 믿어야만 하는데...",
      "poster_path": "/lVcwSnzhSMWYXUQzyMilCztSE6I.jpg"
    },
    {
      "popularity": 96.259,
      "id": 475557,
      "video": false,
      "vote_count": 10914,
      "vote_average": 8.2,
      "title": "조커",
      "release_date": "2019-10-02",
      "original_language": "en",
      "original_title": "Joker",
      "genre_ids": [80, 53, 18],
      "backdrop_path": "/f5F4cRhQdUbyVbB5lTNCwUzD6BP.jpg",
      "adult": false,
      "overview": "홀어머니와 사는 아서 플렉(호아킨 피닉스)은 코미디언을 꿈꾸지만 그의 삶은 좌절과 절망으로 가득 차 있다. 광대 아르바이트는 그에게 모욕을 가져다주기 일쑤고, 긴장하면 웃음을 통제할 수 없는 신경병 증세는 그를 더욱 고립시킨다. 정부 예산 긴축으로 인해 정신과 약물을 지원하던 공공의료 서비스마저 없어져 버린 어느 날, 아서는 지하철에서 시비를 걸어온 증권사 직원들에게 얻어맞던 와중에 동료가 건네준 권총으로 그들을 쏴 버리고 만다. 군중들은 지배계급에 대한 저항의 아이콘이 된 그를 추종하기 시작하며 광대 마스크로 얼굴을 가리고 거리로 쏟아져 나오기 시작하는데...",
      "poster_path": "/wrCwH6WOvXQvVuqcKNUrLDCDxdw.jpg"
    },
    {
      "popularity": 104.588,
      "id": 475303,
      "video": false,
      "vote_count": 783,
      "vote_average": 6.6,
      "title": "레이니 데이 인 뉴욕",
      "release_date": "2019-07-26",
      "original_language": "en",
      "original_title": "A Rainy Day in New York",
      "genre_ids": [35, 10749],
      "backdrop_path": "/6fkqwqLEcDZOEAnBBfKAniwNxtx.jpg",
      "adult": false,
      "overview": "주말을 맞아 뉴욕으로 떠난 캠퍼스 커플이 뜻밖의 만남을 통해 특별한 하루를 만드는 여정을 그린 영화.",
      "poster_path": "/dfXlggE0kVBBhs4pnFlQenxhgEs.jpg"
    },
    {
      "popularity": 115.841,
      "vote_count": 2896,
      "video": false,
      "poster_path": "/klOL5PKYJ2dvMfzixENphwuj0GS.jpg",
      "id": 1996,
      "adult": false,
      "backdrop_path": "/iv6BhAYeJ440OsCGiFKbyBqILVZ.jpg",
      "original_language": "en",
      "original_title": "Lara Croft: Tomb Raider - The Cradle of Life",
      "genre_ids": [28, 12, 14, 53],
      "title": "툼 레이더 2: 판도라의 상자",
      "vote_average": 5.7,
      "overview": "알렉산더 대왕때 지어진 루나 신전에서 발굴 작업을 하던 라라는 신비한 구슬을 발견하게 된다. 그러나 구슬은 곧 정체 모를 괴한에게 뺏아기고, 라라의 대원들은 살해 당한다. 라라가 빼앗긴 신비의 구슬은 알렉산더 대왕의 페르시아 제국을 멸망시킨 전지전능한 힘을 가진 '판도라의 상자'를 찾을 수 있는 유일한 열쇠였던 것! 라라는 과연 신비의 검은 구슬을 되찾아 '판도라의 상자'에 숨겨진 힘을 지배할 수 있을 것인가... '판도라의 상자'의 상자가 열리면, 전세계를 제압할 라라의 모험이 다시 시작된다",
      "release_date": "2003-07-21"
    },
    {
      "popularity": 92.215,
      "vote_count": 6046,
      "video": false,
      "poster_path": "/jjHccoFjbqlfr4VGLVLT7yek0Xn.jpg",
      "id": 496243,
      "adult": false,
      "backdrop_path": "/TU9NIjwzjoKPwQHoHshkFcQUCG.jpg",
      "original_language": "ko",
      "original_title": "기생충",
      "genre_ids": [35, 18, 53],
      "title": "기생충",
      "vote_average": 8.5,
      "overview": "전원 백수로 살 길 막막하지만 사이는 좋은 기택(송강호) 가족. 장남 기우(최우식)에게 명문대생 친구가 연결시켜 준 고액 과외 자리는 모처럼 싹튼 고정수입의 희망이다. 온 가족의 도움과 기대 속에 박 사장(이선균) 집으로 향하는 기우. 글로벌 IT기업의 CEO인 박 사장의 저택에 도착하자 젊고 아름다운 사모님 연교(조여정)와 가정부 충숙(장혜진)이 기우를 맞이한다. 큰 문제 없이 박 사장의 딸 다혜(정지소)의 과외를 시작한 기우. 그러나 이렇게 시작된 두 가족의 만남 뒤로, 걷잡을 수 없는 사건이 기다리고 있는데...",
      "release_date": "2019-05-30"
    },
    {
      "popularity": 59.722,
      "vote_count": 2700,
      "video": false,
      "poster_path": "/cBvjpQEzceaEyTwpXONvAhdH8Zl.jpg",
      "id": 274855,
      "adult": false,
      "backdrop_path": "/79X8JkGxzc1tJMi0KxUSaPLooVg.jpg",
      "original_language": "en",
      "original_title": "Geostorm",
      "genre_ids": [28, 878, 53],
      "title": "지오스톰",
      "vote_average": 5.8,
      "overview": "가까운 미래, 기후변화로 인해 지구에 갖가지 자연재해가 속출한다. 세계 정부 연합은 더 이상의 재난을 예방하기 위해 세계 인공위성 조직망을 통해 날씨를 조종할 수 있는 '더치보이 프로그램'을 개발한다. 하지만 프로그램에 문제가 생기면서 두바이의 쓰나미와 홍콩의 용암 분출, 리우의 혹한, 모스크바의 폭염까지, 세계 곳곳에서 일어날 수 없는 기상이변이 일어나는데...",
      "release_date": "2017-10-13"
    },
    {
      "popularity": 55.865,
      "id": 300671,
      "video": false,
      "vote_count": 1885,
      "vote_average": 7.1,
      "title": "13시간",
      "release_date": "2016-01-13",
      "original_language": "en",
      "original_title": "13 Hours: The Secret Soldiers of Benghazi",
      "genre_ids": [28, 36, 53],
      "backdrop_path": "/hY8myWhjSOUeeiPskhOfwwgaCwc.jpg",
      "adult": false,
      "overview": "2012년 9월 11일 리비아에서 끔찍한 테러 사건이 발생한다. 벵가지 소재 미국 영사관에 총기와 수류탄을 든 수십 명의 무장 괴한들이 침입하는 충격적인 사건이 벌어진 것. 벵가지에서 비밀리에 작전을 수행하고 있던 CIA를 보호하기 위해 파견된 6명의 민간 특수 용병들은 남아있는 사람들을 구하기 위해 일촉즉발의 구출작전에 나서게 되는데…",
      "poster_path": "/6dShVWRsEU0WIUiXxA7QBV6Rw0k.jpg"
    },
    {
      "popularity": 55.78,
      "id": 39107,
      "video": false,
      "vote_count": 387,
      "vote_average": 7.4,
      "title": "드래곤볼 Z: 퓨전의 부활!! 손오공과 베지터 (구극장판 12기)",
      "release_date": "1995-03-04",
      "original_language": "ja",
      "original_title": "ドラゴンボールZ 復活のフュージョン!! 悟空とベジータ",
      "genre_ids": [28, 16],
      "backdrop_path": null,
      "adult": false,
      "overview": "지옥의 악한 영혼 정화통을 관리하는 붉은 오니가 음악에 심취해서 딴청피우다가 정화통이 폭주해서 그 안에 있던 악한영 혼의 엑기스를 뒤집어쓰고 쟈넨바라는 괴물이 되었다. 그리고 예전에 죽은 악당들이 전부 되살아나서 지구를 공격하는데...",
      "poster_path": "/fwTazcLR8ApguyLHGDWkSPKmnB0.jpg"
    },
    {
      "popularity": 55.519,
      "vote_count": 656,
      "video": false,
      "poster_path": "/m4IFNmheHcjbLsVWbUq9TIpWL5S.jpg",
      "id": 11284,
      "adult": false,
      "backdrop_path": "/rX3WXCksGgtOTgxRGxfjVIb2lpS.jpg",
      "original_language": "en",
      "original_title": "Freddy's Dead: The Final Nightmare",
      "genre_ids": [35, 27, 53],
      "title": "나이트메어 6 : 프레디 죽다",
      "vote_average": 5.2,
      "overview": "심리학자 매기 부룩(Dr. Maggie Burroughs : 리자 제인 분)은 도시의 은신처에서 일을 하다가 문제아 존(John Doe : 숀 그린블랫 분)을 만나 그가 잠을 자지않는 이유를 듣고 그의 얘기가 나이트메어와 유사하다는 것을 깨닫고, 둘은 프레디(Freddy Krueger : 로버트 잉글랜드 분)의 비밀을 밝혀내기 위해, 스프링우드로 향한다. 그러나 그들이 도착했을때는 프레디가 그 마을을 완전히 나이트메어의 천국으로 만들어 놓은 후이다. 할 수 없이 꿈 속의 악마와 동양심리학에 박식한 장님 독(Doc : 야펫 코토 분)과 상황에 대해 의논하면서 매기와 독은 더이상의 살상을 막고, 프레디를 영원해 잠재우기 위해 완벽한 계획에 착수한다. 그러나 매기가 프레디의 딸이라는 사실과 그녀의 내부가 나이트메어의 힘의 원천이라는 것을 알게되고, 그녀는 프레디를 영원히 잠재우기 위해 독의 감시하에 잠이 들면서 프레디의 세계로 들어가는데...",
      "release_date": "1991-09-05"
    },
    {
      "popularity": 91.104,
      "vote_count": 6,
      "video": false,
      "poster_path": "/dRCip3nvvHd5jW5E0GrjBsk0OX1.jpg",
      "id": 614375,
      "adult": false,
      "backdrop_path": null,
      "original_language": "tl",
      "original_title": "F#*@BOIS",
      "genre_ids": [18],
      "title": "F#*@BOIS",
      "vote_average": 7.9,
      "overview": "",
      "release_date": "2019-08-02"
    },
    {
      "popularity": 84.933,
      "vote_count": 7,
      "video": false,
      "poster_path": "/6C9fb7duBSzsXkkobfwuMgEW58F.jpg",
      "id": 571265,
      "adult": false,
      "backdrop_path": "/ApywEWLRVaHUY5QX5tUhErBD5m3.jpg",
      "original_language": "ja",
      "original_title": "デジモンアドベンチャー LAST EVOLUTION 絆",
      "genre_ids": [28, 12, 16, 53],
      "title": "극장판 디지몬 어드벤처: 라스트 에볼루션-인연",
      "vote_average": 4.8,
      "overview": "디지몬 어드벤처 2020년판",
      "release_date": "2020-02-21"
    },
    {
      "popularity": 93.133,
      "vote_count": 376,
      "video": false,
      "poster_path": "/8mS3VvzeDfw6VdgQQbXsunNBEit.jpg",
      "id": 514847,
      "adult": false,
      "backdrop_path": "/qfQ78ZKiouoM2yhAnfNblp9ijQE.jpg",
      "original_language": "en",
      "original_title": "The Hunt",
      "genre_ids": [28, 27, 53],
      "title": "헌트",
      "vote_average": 6.9,
      "overview": "낯선 사람들과 함께 의문의 지역에 갇혀 영문도 모른 채 사냥 당하고 있는 ‘크리스탈’(베티 길핀)이 자신들을 사냥하는 주체를 밝히고, 그들을 찾아 복수하기 위해 고군분투하는 이야기",
      "release_date": "2020-03-11"
    },
    {
      "popularity": 79.404,
      "id": 530915,
      "video": false,
      "vote_count": 4039,
      "vote_average": 7.9,
      "title": "1917",
      "release_date": "2019-12-25",
      "original_language": "en",
      "original_title": "1917",
      "genre_ids": [10752, 18, 28, 53],
      "backdrop_path": "/2lBOQK06tltt8SQaswgb8d657Mv.jpg",
      "adult": false,
      "overview": "제1차 세계대전이 한창인 1917년 4월 6일. 독일군에 의해 모든 통신망이 파괴된 상황 속에서 서부전선의영국군 병사 스코필드(조지 맥케이)와 블레이크(딘 찰스 채프먼)에게 하나의 미션이 주어졌다. 독일군의 함정에 빠진 영국군 부대의 수장 매켄지 중령(베네딕트 컴버배치)에게 에린무어 장군(콜린 퍼스)의 공격 중지 명령을 전달하라는 것. 블레이크는 데본셔 연대에 있는 형을 구하기 위해 기꺼이 임무를 수행한다. 동료인 스코필드는 처음엔 당황스러워하지만 이내 1600명의 동료들을 구하기 위해 전쟁터 한가운데를 가로지르는 여정에 동참한다.",
      "poster_path": "/u2oRQqUashBBIj5UNeOd5TN0bmB.jpg"
    }
  ]
}
